-1.3704707448830864000000000000000000000000000000000000000000000000
-1.3660983406435248000000000000000000000000000000000000000000000000
-1.3774863120865224000000000000000000000000000000000000000000000000
-1.3653900682319235000000000000000000000000000000000000000000000000
-1.3450151200665652000000000000000000000000000000000000000000000000
-1.3884674472482941000000000000000000000000000000000000000000000000
-1.3895643552299450000000000000000000000000000000000000000000000000
-1.3495500871463553000000000000000000000000000000000000000000000000
-1.3596630044133819000000000000000000000000000000000000000000000000
-1.3783807114829902000000000000000000000000000000000000000000000000
-1.4051077934894625000000000000000000000000000000000000000000000000
-1.3850546607695926000000000000000000000000000000000000000000000000
-1.4099172107404434000000000000000000000000000000000000000000000000
-1.3685823726771578000000000000000000000000000000000000000000000000
-1.3394425597041362000000000000000000000000000000000000000000000000
-1.3726625741815486000000000000000000000000000000000000000000000000
-1.3465884699069337000000000000000000000000000000000000000000000000
-1.4380199878592750000000000000000000000000000000000000000000000000
-1.3343480000757437000000000000000000000000000000000000000000000000
-1.3637446406831293000000000000000000000000000000000000000000000000
-1.4054818889660590000000000000000000000000000000000000000000000000
-1.2795903293324129000000000000000000000000000000000000000000000000
-1.2479867440765631000000000000000000000000000000000000000000000000
-1.6134247356521210000000000000000000000000000000000000000000000000
-1.3362636680932343000000000000000000000000000000000000000000000000
-1.3786919864497840000000000000000000000000000000000000000000000000
-1.1669984468261503000000000000000000000000000000000000000000000000
-1.3034339581551040000000000000000000000000000000000000000000000000
-1.4804899404613945000000000000000000000000000000000000000000000000
-1.2330847420673396000000000000000000000000000000000000000000000000
-1.4353899856637502000000000000000000000000000000000000000000000000
-1.2716648391574989000000000000000000000000000000000000000000000000
-1.2566321777559337000000000000000000000000000000000000000000000000
-1.3774699876868957000000000000000000000000000000000000000000000000
-1.3671735179463982000000000000000000000000000000000000000000000000
-1.4136450890622718000000000000000000000000000000000000000000000000
-1.3243168549069686000000000000000000000000000000000000000000000000
-1.2907579886822118000000000000000000000000000000000000000000000000
-1.0931587585679270000000000000000000000000000000000000000000000000
-1.5017005008633373000000000000000000000000000000000000000000000000
-1.2455080359850306000000000000000000000000000000000000000000000000
-1.2116563724744220000000000000000000000000000000000000000000000000
-1.2122952846273243000000000000000000000000000000000000000000000000
-1.1434607577474445000000000000000000000000000000000000000000000000
-1.3334155947647286000000000000000000000000000000000000000000000000
-1.2162447209276170000000000000000000000000000000000000000000000000
-1.2530206769391952000000000000000000000000000000000000000000000000
-1.1540012047160666000000000000000000000000000000000000000000000000
-1.1943723773372219000000000000000000000000000000000000000000000000
-1.1597371410375734000000000000000000000000000000000000000000000000
-1.2742496632977240000000000000000000000000000000000000000000000000
-1.2385577623364807000000000000000000000000000000000000000000000000
-1.2948796756726177000000000000000000000000000000000000000000000000
-1.2671715918250972000000000000000000000000000000000000000000000000
-1.1836948290059988000000000000000000000000000000000000000000000000
-1.2016230879992327000000000000000000000000000000000000000000000000
-1.2129900903077750000000000000000000000000000000000000000000000000
-1.1687877278477952000000000000000000000000000000000000000000000000
-1.1676705132627294000000000000000000000000000000000000000000000000
-1.1685903437231735000000000000000000000000000000000000000000000000
-1.1404219130301385000000000000000000000000000000000000000000000000
-1.1808898852913454000000000000000000000000000000000000000000000000
-1.1590752649006595000000000000000000000000000000000000000000000000
-1.1639252806302010000000000000000000000000000000000000000000000000
-1.1798482885706219000000000000000000000000000000000000000000000000
-1.1528311615171081000000000000000000000000000000000000000000000000
-1.1424269068510369000000000000000000000000000000000000000000000000
-1.1335901714715138000000000000000000000000000000000000000000000000
-1.1325932959249569000000000000000000000000000000000000000000000000
-1.1191270853943354000000000000000000000000000000000000000000000000
-1.1258155209053069000000000000000000000000000000000000000000000000
-1.1185222518125859000000000000000000000000000000000000000000000000
-1.1208598067091311000000000000000000000000000000000000000000000000
-1.1153238543150079000000000000000000000000000000000000000000000000
-1.1307393276673292000000000000000000000000000000000000000000000000
-1.0477989736083371000000000000000000000000000000000000000000000000
-1.1040475796507292000000000000000000000000000000000000000000000000
-0.9838576779560719300000000000000000000000000000000000000000000000
-1.0390607657090707000000000000000000000000000000000000000000000000
-1.1746143758356486000000000000000000000000000000000000000000000000
-1.0173205640063052000000000000000000000000000000000000000000000000
-1.1034748454076633000000000000000000000000000000000000000000000000
-1.0574479628793698000000000000000000000000000000000000000000000000
-0.9486784462649047200000000000000000000000000000000000000000000000
-1.0069112979638266000000000000000000000000000000000000000000000000
-1.0935377021515711000000000000000000000000000000000000000000000000
-1.0430588274233892000000000000000000000000000000000000000000000000
-1.0292998198148149000000000000000000000000000000000000000000000000
-0.9597422229260518200000000000000000000000000000000000000000000000
-1.1619038949296485000000000000000000000000000000000000000000000000
-1.0551103144327245000000000000000000000000000000000000000000000000
-1.0511601839049718000000000000000000000000000000000000000000000000
-0.8858995653210325300000000000000000000000000000000000000000000000
-0.9047238387404955600000000000000000000000000000000000000000000000
-1.1197223664811040000000000000000000000000000000000000000000000000
-0.9821629880002962200000000000000000000000000000000000000000000000
-1.0878526917673370000000000000000000000000000000000000000000000000
-0.9102586043453104700000000000000000000000000000000000000000000000
-0.9777510391395204400000000000000000000000000000000000000000000000
-0.8416688113266644900000000000000000000000000000000000000000000000
-0.8713128082027262700000000000000000000000000000000000000000000000
-0.7979983368768026600000000000000000000000000000000000000000000000
-0.8474420121716391700000000000000000000000000000000000000000000000
-0.8458255220913418700000000000000000000000000000000000000000000000
-0.9040483635737697200000000000000000000000000000000000000000000000
-1.0377297706355852000000000000000000000000000000000000000000000000
-1.0511696186677306000000000000000000000000000000000000000000000000
-0.9126646254523668200000000000000000000000000000000000000000000000
-0.8767783132471230800000000000000000000000000000000000000000000000
-0.7779914095543598600000000000000000000000000000000000000000000000
-0.8198187342568628000000000000000000000000000000000000000000000000
-0.8204197301455102800000000000000000000000000000000000000000000000
-0.9395887089559957800000000000000000000000000000000000000000000000
-0.7716842421596268300000000000000000000000000000000000000000000000
-0.7922353423715232700000000000000000000000000000000000000000000000
-0.8399511297285932000000000000000000000000000000000000000000000000
-0.8084020977390730100000000000000000000000000000000000000000000000
-0.7504178788824048500000000000000000000000000000000000000000000000
-0.8434388433807709100000000000000000000000000000000000000000000000
-0.8236262530347615600000000000000000000000000000000000000000000000
-0.8759715210782455000000000000000000000000000000000000000000000000
-0.8299777022195897700000000000000000000000000000000000000000000000
-0.7966816253791081400000000000000000000000000000000000000000000000
-0.8282286712678286200000000000000000000000000000000000000000000000
-0.7540908091702572800000000000000000000000000000000000000000000000
-0.8827566086352056600000000000000000000000000000000000000000000000
-0.8164815162205698600000000000000000000000000000000000000000000000
-0.8169647491971108200000000000000000000000000000000000000000000000
-0.8145359635969408000000000000000000000000000000000000000000000000
-0.7990829312888334500000000000000000000000000000000000000000000000
-0.8059473755625329300000000000000000000000000000000000000000000000
-0.7755719896057169400000000000000000000000000000000000000000000000
-0.7930485905974787900000000000000000000000000000000000000000000000
-0.7818142129255191100000000000000000000000000000000000000000000000
-0.7644352681623697300000000000000000000000000000000000000000000000
-0.7607341240370434400000000000000000000000000000000000000000000000
-0.7521918229878799000000000000000000000000000000000000000000000000
-0.7555805474313819200000000000000000000000000000000000000000000000
-0.7434354561163176700000000000000000000000000000000000000000000000
-0.7303681575895419900000000000000000000000000000000000000000000000
-0.7137152813275973200000000000000000000000000000000000000000000000
-0.7369963687300492600000000000000000000000000000000000000000000000
-0.7491013113583641100000000000000000000000000000000000000000000000
-0.7081831402509544100000000000000000000000000000000000000000000000
-0.7022952078866524500000000000000000000000000000000000000000000000
-0.7001066015801733500000000000000000000000000000000000000000000000
-0.6539183267735830800000000000000000000000000000000000000000000000
-0.6719331238388330800000000000000000000000000000000000000000000000
-0.6661343792666747400000000000000000000000000000000000000000000000
-0.6547455359033251800000000000000000000000000000000000000000000000
-0.7294974229291002500000000000000000000000000000000000000000000000
-0.6356826844924888800000000000000000000000000000000000000000000000
-0.6969876114848567700000000000000000000000000000000000000000000000
-0.6591570734710559000000000000000000000000000000000000000000000000
-0.6499560804618210700000000000000000000000000000000000000000000000
-0.7428798529126347000000000000000000000000000000000000000000000000
-0.6068325556114702000000000000000000000000000000000000000000000000
-0.7388724040345174800000000000000000000000000000000000000000000000
-0.6719886898388634000000000000000000000000000000000000000000000000
-0.5827123615891122200000000000000000000000000000000000000000000000
-0.6315059044937863000000000000000000000000000000000000000000000000
-0.6566805275709790600000000000000000000000000000000000000000000000
-0.5962066867923783200000000000000000000000000000000000000000000000
-0.6295327456605504000000000000000000000000000000000000000000000000
-0.6005587704351548200000000000000000000000000000000000000000000000
-0.6157196345148854300000000000000000000000000000000000000000000000
-0.5587434735670739900000000000000000000000000000000000000000000000
-0.5098577590023744000000000000000000000000000000000000000000000000
-0.5438138116756602300000000000000000000000000000000000000000000000
-0.5721904867125952000000000000000000000000000000000000000000000000
-0.5442619066493710200000000000000000000000000000000000000000000000
-0.6278857664735298900000000000000000000000000000000000000000000000
-0.5809151010913555800000000000000000000000000000000000000000000000
-0.4618292882045597600000000000000000000000000000000000000000000000
-0.5287303991617318100000000000000000000000000000000000000000000000
-0.5406150095842611200000000000000000000000000000000000000000000000
-0.5372918757486344600000000000000000000000000000000000000000000000
-0.4880026671769293100000000000000000000000000000000000000000000000
-0.5087114159142937000000000000000000000000000000000000000000000000
-0.5011157419485113800000000000000000000000000000000000000000000000
-0.5269730598464855700000000000000000000000000000000000000000000000
-0.4850504879449929500000000000000000000000000000000000000000000000
-0.5515636436784581200000000000000000000000000000000000000000000000
-0.4934328711246872000000000000000000000000000000000000000000000000
-0.4670589551407206000000000000000000000000000000000000000000000000
-0.4851963787073519400000000000000000000000000000000000000000000000
-0.4582720781830521000000000000000000000000000000000000000000000000
-0.4595069482720072800000000000000000000000000000000000000000000000
-0.4557853807444147100000000000000000000000000000000000000000000000
-0.4517531892425905600000000000000000000000000000000000000000000000
-0.4717823051406967400000000000000000000000000000000000000000000000
-0.4410152259307099100000000000000000000000000000000000000000000000
-0.4326093345276369500000000000000000000000000000000000000000000000
-0.4344021671978846000000000000000000000000000000000000000000000000
-0.4321330595990904300000000000000000000000000000000000000000000000
-0.4134167968332735400000000000000000000000000000000000000000000000
-0.4183602711461726900000000000000000000000000000000000000000000000
-0.3981289589842203500000000000000000000000000000000000000000000000
-0.4022616876826283800000000000000000000000000000000000000000000000
-0.4006217814985107400000000000000000000000000000000000000000000000
-0.3934257385022821900000000000000000000000000000000000000000000000
-0.3861233644817403900000000000000000000000000000000000000000000000
-0.3824715025063973900000000000000000000000000000000000000000000000
-0.3766911089213986800000000000000000000000000000000000000000000000
-0.3687159772270716100000000000000000000000000000000000000000000000
-0.3650495401080724500000000000000000000000000000000000000000000000
-0.3563654012216650500000000000000000000000000000000000000000000000
-0.3490575113323171600000000000000000000000000000000000000000000000
-0.3487037169801916500000000000000000000000000000000000000000000000
-0.3562029190004753500000000000000000000000000000000000000000000000
-0.3299786861854139300000000000000000000000000000000000000000000000
-0.3364005749440922600000000000000000000000000000000000000000000000
-0.3228015773385297700000000000000000000000000000000000000000000000
-0.3209180827640682500000000000000000000000000000000000000000000000
-0.3094709021604496500000000000000000000000000000000000000000000000
-0.3113750148757035700000000000000000000000000000000000000000000000
-0.2939381942729998300000000000000000000000000000000000000000000000
-0.2965797431527757400000000000000000000000000000000000000000000000
-0.2665340903706843700000000000000000000000000000000000000000000000
-0.2452802932161184900000000000000000000000000000000000000000000000
-0.2736237453850601200000000000000000000000000000000000000000000000
-0.2795344516810722200000000000000000000000000000000000000000000000
-0.2680073908902795300000000000000000000000000000000000000000000000
-0.2641265299874692700000000000000000000000000000000000000000000000
-0.2261463080954047300000000000000000000000000000000000000000000000
-0.2452717625430230200000000000000000000000000000000000000000000000
-0.2518096864881612100000000000000000000000000000000000000000000000
-0.2412996869309346500000000000000000000000000000000000000000000000
-0.2287306292229944700000000000000000000000000000000000000000000000
-0.2431612340940144900000000000000000000000000000000000000000000000
-0.2093390044044987400000000000000000000000000000000000000000000000
-0.1864112809338002400000000000000000000000000000000000000000000000
-0.1929750581715571100000000000000000000000000000000000000000000000
-0.1861351722096123400000000000000000000000000000000000000000000000
-0.2013453843068609100000000000000000000000000000000000000000000000
-0.1778363523530738200000000000000000000000000000000000000000000000
-0.1720922705556315900000000000000000000000000000000000000000000000
-0.1801363067568209600000000000000000000000000000000000000000000000
-0.1638268142072055500000000000000000000000000000000000000000000000
-0.1546479443355067200000000000000000000000000000000000000000000000
-0.1608011027944019900000000000000000000000000000000000000000000000
-0.1604634615899883400000000000000000000000000000000000000000000000
-0.1473424605842817400000000000000000000000000000000000000000000000
-0.1602961630042740700000000000000000000000000000000000000000000000
-0.1363112112947985900000000000000000000000000000000000000000000000
-0.1259482013195691300000000000000000000000000000000000000000000000
-0.1271379380689629200000000000000000000000000000000000000000000000
-0.1126784207388650300000000000000000000000000000000000000000000000
-0.1139914187254770600000000000000000000000000000000000000000000000
-0.1163864101323131700000000000000000000000000000000000000000000000
-0.1057608857340414500000000000000000000000000000000000000000000000
-0.1048153891046891100000000000000000000000000000000000000000000000
-0.0916817214258144750000000000000000000000000000000000000000000000
-0.0918157114686306840000000000000000000000000000000000000000000000
-0.0790652277945806110000000000000000000000000000000000000000000000
-0.0787140385011088630000000000000000000000000000000000000000000000
-0.0772531113355272720000000000000000000000000000000000000000000000
-0.0634496948604292290000000000000000000000000000000000000000000000
-0.0618199552934068710000000000000000000000000000000000000000000000
-0.0583423708248448980000000000000000000000000000000000000000000000
-0.0542275311228384640000000000000000000000000000000000000000000000
-0.0469320804921361450000000000000000000000000000000000000000000000
-0.0397645076423215680000000000000000000000000000000000000000000000
-0.0372772323700020780000000000000000000000000000000000000000000000
-0.0302065070403751030000000000000000000000000000000000000000000000
-0.0254962617899986350000000000000000000000000000000000000000000000
-0.0203358616978907940000000000000000000000000000000000000000000000
-0.0149129049584666960000000000000000000000000000000000000000000000
-0.0096465696304542693000000000000000000000000000000000000000000000
-0.0045921044000502903000000000000000000000000000000000000000000000
0.0005781349800840946200000000000000000000000000000000000000000000
0.0056871162047040374000000000000000000000000000000000000000000000
0.0108366019377286600000000000000000000000000000000000000000000000
0.0159214701382875930000000000000000000000000000000000000000000000
0.0208741555374536950000000000000000000000000000000000000000000000
0.0262368246075200230000000000000000000000000000000000000000000000
0.0313442824956939040000000000000000000000000000000000000000000000
0.0347395590272441410000000000000000000000000000000000000000000000
0.0405148421513341210000000000000000000000000000000000000000000000
0.0461652552666226010000000000000000000000000000000000000000000000
0.0529001199998971880000000000000000000000000000000000000000000000
0.0589622140114062710000000000000000000000000000000000000000000000
0.0630506986530796200000000000000000000000000000000000000000000000
0.0656535026082725740000000000000000000000000000000000000000000000
0.0695372520905574170000000000000000000000000000000000000000000000
0.0768937030546280180000000000000000000000000000000000000000000000
0.0779747940372819000000000000000000000000000000000000000000000000
0.0844881586184891430000000000000000000000000000000000000000000000
0.0804288507133839590000000000000000000000000000000000000000000000
0.0962152009659535960000000000000000000000000000000000000000000000
0.1021930657126776700000000000000000000000000000000000000000000000
0.1013950998566451900000000000000000000000000000000000000000000000
0.1201937871494474800000000000000000000000000000000000000000000000
0.1218918573924415600000000000000000000000000000000000000000000000
0.1229912032114069800000000000000000000000000000000000000000000000
0.1335893336024155100000000000000000000000000000000000000000000000
0.1227448986046587000000000000000000000000000000000000000000000000
0.1266074812374845300000000000000000000000000000000000000000000000
0.1444672214575828100000000000000000000000000000000000000000000000
0.1363308497977840400000000000000000000000000000000000000000000000
0.1522345821067857000000000000000000000000000000000000000000000000
0.1385949996367996400000000000000000000000000000000000000000000000
0.1668687943068163900000000000000000000000000000000000000000000000
0.1725267080644981600000000000000000000000000000000000000000000000
0.1658696166280089200000000000000000000000000000000000000000000000
0.1986235658669064700000000000000000000000000000000000000000000000
0.1777557415374024200000000000000000000000000000000000000000000000
0.1729851836421872300000000000000000000000000000000000000000000000
0.2041985001158375700000000000000000000000000000000000000000000000
0.1739980603666543000000000000000000000000000000000000000000000000
0.1804219053935766600000000000000000000000000000000000000000000000
0.2111777179819883700000000000000000000000000000000000000000000000
0.2170492582787285900000000000000000000000000000000000000000000000
0.2435027697999842000000000000000000000000000000000000000000000000
0.2128796494093429500000000000000000000000000000000000000000000000
0.2585103766100926300000000000000000000000000000000000000000000000
0.2098667153373868200000000000000000000000000000000000000000000000
0.2083126052887573400000000000000000000000000000000000000000000000
0.2442096664790867300000000000000000000000000000000000000000000000
0.2589910760520648400000000000000000000000000000000000000000000000
0.2408579158898555600000000000000000000000000000000000000000000000
0.2730964998670966100000000000000000000000000000000000000000000000
0.2654197871709864700000000000000000000000000000000000000000000000
0.2792599161155507900000000000000000000000000000000000000000000000
0.2637092640018527900000000000000000000000000000000000000000000000
0.2791621841111503500000000000000000000000000000000000000000000000
0.2824926904034357200000000000000000000000000000000000000000000000
0.2950198439252789700000000000000000000000000000000000000000000000
0.3004641565213475000000000000000000000000000000000000000000000000
0.3203635125148348000000000000000000000000000000000000000000000000
0.3181665802974546500000000000000000000000000000000000000000000000
0.3282575992145480000000000000000000000000000000000000000000000000
0.3292776356295200000000000000000000000000000000000000000000000000
0.3332019790624832800000000000000000000000000000000000000000000000
0.3386438342272864400000000000000000000000000000000000000000000000
0.3492408500141235800000000000000000000000000000000000000000000000
0.3574162713016260100000000000000000000000000000000000000000000000
0.3624359095442456500000000000000000000000000000000000000000000000
0.3670176831368148200000000000000000000000000000000000000000000000
0.3715414525026725100000000000000000000000000000000000000000000000
0.3779179405586963700000000000000000000000000000000000000000000000
0.3859424927486924100000000000000000000000000000000000000000000000
0.3885069337877719000000000000000000000000000000000000000000000000
0.4002205259059754500000000000000000000000000000000000000000000000
0.4220191388794487500000000000000000000000000000000000000000000000
0.4283571938141992900000000000000000000000000000000000000000000000
0.4256567267248205200000000000000000000000000000000000000000000000
0.4041206192345392400000000000000000000000000000000000000000000000
0.4672700109283801600000000000000000000000000000000000000000000000
0.4203031123704467600000000000000000000000000000000000000000000000
0.4612406368151491500000000000000000000000000000000000000000000000
0.4436277717463195100000000000000000000000000000000000000000000000
0.4397553813158703300000000000000000000000000000000000000000000000
0.5064102479290117900000000000000000000000000000000000000000000000
0.5118386530153814500000000000000000000000000000000000000000000000
0.4394165848147963400000000000000000000000000000000000000000000000
0.4949222649018075200000000000000000000000000000000000000000000000
0.4919067053174664400000000000000000000000000000000000000000000000
0.4682410806774097700000000000000000000000000000000000000000000000
0.5445927271978272500000000000000000000000000000000000000000000000
0.5058207033578486800000000000000000000000000000000000000000000000
0.6428554941523906300000000000000000000000000000000000000000000000
0.5400791128657972400000000000000000000000000000000000000000000000
0.5535203857615034200000000000000000000000000000000000000000000000
0.5635856372563934300000000000000000000000000000000000000000000000
0.5138556294643749100000000000000000000000000000000000000000000000
0.5830674787023503200000000000000000000000000000000000000000000000
0.4881294280558630700000000000000000000000000000000000000000000000
0.4940918030987578900000000000000000000000000000000000000000000000
0.6170528089917477500000000000000000000000000000000000000000000000
0.5759855766154299300000000000000000000000000000000000000000000000
0.6560240418474198000000000000000000000000000000000000000000000000
0.6263748365539789600000000000000000000000000000000000000000000000
0.5172573352611132800000000000000000000000000000000000000000000000
0.5032883791249303000000000000000000000000000000000000000000000000
0.6054541989947486200000000000000000000000000000000000000000000000
0.6106900353460647000000000000000000000000000000000000000000000000
0.6836237957927676600000000000000000000000000000000000000000000000
0.6674264623093633100000000000000000000000000000000000000000000000
0.6037312086819530700000000000000000000000000000000000000000000000
0.6757726697152910400000000000000000000000000000000000000000000000
0.6226358509110813100000000000000000000000000000000000000000000000
0.6411038785538759600000000000000000000000000000000000000000000000
0.6586007616852867000000000000000000000000000000000000000000000000
0.6126565589633894400000000000000000000000000000000000000000000000
0.6203806191685515800000000000000000000000000000000000000000000000
0.6392162215836706400000000000000000000000000000000000000000000000
0.6954142660009466900000000000000000000000000000000000000000000000
0.6612736745999205900000000000000000000000000000000000000000000000
0.7194471376554192300000000000000000000000000000000000000000000000
0.6187003511073689800000000000000000000000000000000000000000000000
0.6412320042954049400000000000000000000000000000000000000000000000
0.7067053319199677600000000000000000000000000000000000000000000000
0.6974361920037439600000000000000000000000000000000000000000000000
0.7457022369716449500000000000000000000000000000000000000000000000
0.6823620927266763600000000000000000000000000000000000000000000000
0.6853115686462534200000000000000000000000000000000000000000000000
0.6957308587355068900000000000000000000000000000000000000000000000
0.7177837348677224000000000000000000000000000000000000000000000000
0.7119296386944473600000000000000000000000000000000000000000000000
0.7063152076841555700000000000000000000000000000000000000000000000
0.7275443274811460600000000000000000000000000000000000000000000000
0.7279998453585248000000000000000000000000000000000000000000000000
0.7312991540238200600000000000000000000000000000000000000000000000
0.7424050497946872400000000000000000000000000000000000000000000000
0.7455739225338091600000000000000000000000000000000000000000000000
0.7490868329918336500000000000000000000000000000000000000000000000
0.7628966780225859800000000000000000000000000000000000000000000000
0.7684140808005305300000000000000000000000000000000000000000000000
0.7712289250164714400000000000000000000000000000000000000000000000
0.7558991572169435600000000000000000000000000000000000000000000000
0.7886891664129908100000000000000000000000000000000000000000000000
0.7548312969714083800000000000000000000000000000000000000000000000
0.7891937496695055100000000000000000000000000000000000000000000000
0.7227160445924723000000000000000000000000000000000000000000000000
0.7603760295139845300000000000000000000000000000000000000000000000
0.7588440563260516700000000000000000000000000000000000000000000000
0.8224557944907390200000000000000000000000000000000000000000000000
0.7803440129988288300000000000000000000000000000000000000000000000
0.7922109516559343600000000000000000000000000000000000000000000000
0.7589097401886332200000000000000000000000000000000000000000000000
0.8221397976907910400000000000000000000000000000000000000000000000
0.7705322829354222000000000000000000000000000000000000000000000000
0.7520505730050902600000000000000000000000000000000000000000000000
0.9005226814676100500000000000000000000000000000000000000000000000
0.7581973342008461200000000000000000000000000000000000000000000000
0.9206372922468746300000000000000000000000000000000000000000000000
0.7780382908183335300000000000000000000000000000000000000000000000
0.8377704629382186600000000000000000000000000000000000000000000000
0.9167544827644721300000000000000000000000000000000000000000000000
0.9023645856421798100000000000000000000000000000000000000000000000
0.8646475861172210300000000000000000000000000000000000000000000000
0.9010138503268502200000000000000000000000000000000000000000000000
0.9022007678718017000000000000000000000000000000000000000000000000
0.8148728099720914400000000000000000000000000000000000000000000000
0.9707223107984026500000000000000000000000000000000000000000000000
0.9463762568834815900000000000000000000000000000000000000000000000
0.9568213622637725700000000000000000000000000000000000000000000000
0.9414662334879924100000000000000000000000000000000000000000000000
0.8572673426344961100000000000000000000000000000000000000000000000
0.9409385057354090500000000000000000000000000000000000000000000000
0.8472691551717128600000000000000000000000000000000000000000000000
0.8226115385326141500000000000000000000000000000000000000000000000
0.9412922414292807000000000000000000000000000000000000000000000000
0.9484445344388831000000000000000000000000000000000000000000000000
0.9584109480018104800000000000000000000000000000000000000000000000
0.8090743974469519800000000000000000000000000000000000000000000000
1.0732191681753709000000000000000000000000000000000000000000000000
0.9795412485266800100000000000000000000000000000000000000000000000
1.0353074478237030000000000000000000000000000000000000000000000000
0.9808171161957730500000000000000000000000000000000000000000000000
0.9507762117762723600000000000000000000000000000000000000000000000
0.9417186918442593800000000000000000000000000000000000000000000000
1.0151823782892038000000000000000000000000000000000000000000000000
1.0941141619605150000000000000000000000000000000000000000000000000
1.1219873988171287000000000000000000000000000000000000000000000000
1.0951003425910739000000000000000000000000000000000000000000000000
1.0133359812809795000000000000000000000000000000000000000000000000
1.0087287729784815000000000000000000000000000000000000000000000000
1.0818012228468843000000000000000000000000000000000000000000000000
1.1283953754825358000000000000000000000000000000000000000000000000
1.0174782264532078000000000000000000000000000000000000000000000000
1.0346561146173425000000000000000000000000000000000000000000000000
1.1090125216279476000000000000000000000000000000000000000000000000
1.1045429122751014000000000000000000000000000000000000000000000000
1.1330247271348992000000000000000000000000000000000000000000000000
1.0700786999767080000000000000000000000000000000000000000000000000
1.0974938161493248000000000000000000000000000000000000000000000000
1.1027620897706176000000000000000000000000000000000000000000000000
1.1082521421711948000000000000000000000000000000000000000000000000
1.1199828340317044000000000000000000000000000000000000000000000000
1.1161237027739193000000000000000000000000000000000000000000000000
1.1205795615246938000000000000000000000000000000000000000000000000
1.1246652249955367000000000000000000000000000000000000000000000000
1.1416366394491977000000000000000000000000000000000000000000000000
1.1244287850055090000000000000000000000000000000000000000000000000
1.1325970746906586000000000000000000000000000000000000000000000000
1.1461928756186561000000000000000000000000000000000000000000000000
1.1425145526897640000000000000000000000000000000000000000000000000
1.1681520974732007000000000000000000000000000000000000000000000000
1.1427494052237082000000000000000000000000000000000000000000000000
1.1608195927827949000000000000000000000000000000000000000000000000
1.1732243723834617000000000000000000000000000000000000000000000000
1.1493172654666264000000000000000000000000000000000000000000000000
1.1250946275033846000000000000000000000000000000000000000000000000
1.1251977728323774000000000000000000000000000000000000000000000000
1.3305688381971139000000000000000000000000000000000000000000000000
1.2119506492180598000000000000000000000000000000000000000000000000
1.1401511833655598000000000000000000000000000000000000000000000000
1.2572334946754555000000000000000000000000000000000000000000000000
1.2795445437797379000000000000000000000000000000000000000000000000
1.2287588582572513000000000000000000000000000000000000000000000000
1.2792258545050472000000000000000000000000000000000000000000000000
1.2950707137915771000000000000000000000000000000000000000000000000
1.1404643243063366000000000000000000000000000000000000000000000000
1.3567420378507149000000000000000000000000000000000000000000000000
1.2315508283505872000000000000000000000000000000000000000000000000
1.1314938437275963000000000000000000000000000000000000000000000000
1.0888517805247662000000000000000000000000000000000000000000000000
1.3819274199665832000000000000000000000000000000000000000000000000
1.3254573890437429000000000000000000000000000000000000000000000000
1.1008970809634246000000000000000000000000000000000000000000000000
1.1758115764795753000000000000000000000000000000000000000000000000
1.4236399733257721000000000000000000000000000000000000000000000000
1.2145848093431728000000000000000000000000000000000000000000000000
1.2366011895425109000000000000000000000000000000000000000000000000
1.2428483807548349000000000000000000000000000000000000000000000000
1.3163668422190209000000000000000000000000000000000000000000000000
1.1862330840973814000000000000000000000000000000000000000000000000
1.3244943442581567000000000000000000000000000000000000000000000000
1.4095182664810066000000000000000000000000000000000000000000000000
1.2004896119759676000000000000000000000000000000000000000000000000
1.3973638781470932000000000000000000000000000000000000000000000000
1.2417367741623748000000000000000000000000000000000000000000000000
1.3846697277576789000000000000000000000000000000000000000000000000
1.1895093752191355000000000000000000000000000000000000000000000000
1.3879489868159416000000000000000000000000000000000000000000000000
1.3727449574308059000000000000000000000000000000000000000000000000
1.2750203021102364000000000000000000000000000000000000000000000000
1.3194655928309460000000000000000000000000000000000000000000000000
1.1657045973845264000000000000000000000000000000000000000000000000
1.3473631434454723000000000000000000000000000000000000000000000000
1.1431711159664066000000000000000000000000000000000000000000000000
1.3365416847607003000000000000000000000000000000000000000000000000
1.5451931510285966000000000000000000000000000000000000000000000000
1.3774371499479359000000000000000000000000000000000000000000000000
1.3004586588300420000000000000000000000000000000000000000000000000
1.3466138228574915000000000000000000000000000000000000000000000000
1.4147310769547765000000000000000000000000000000000000000000000000
1.3462105105418276000000000000000000000000000000000000000000000000
1.3131918636018307000000000000000000000000000000000000000000000000
1.3326256170578261000000000000000000000000000000000000000000000000
1.2605728784354162000000000000000000000000000000000000000000000000
1.4046868054356725000000000000000000000000000000000000000000000000
1.3439578944778705000000000000000000000000000000000000000000000000
1.3925766360745135000000000000000000000000000000000000000000000000
1.4101536571041042000000000000000000000000000000000000000000000000
1.3998324916636424000000000000000000000000000000000000000000000000
1.3729982590012930000000000000000000000000000000000000000000000000
1.3783844403559788000000000000000000000000000000000000000000000000
1.3780389544322866000000000000000000000000000000000000000000000000
